<?xml version="1.0" encoding="utf-8"?>
<!-- Generator: Adobe Illustrator 24.2.3, SVG Export Plug-In . SVG Version: 6.00 Build 0)  -->
<svg version="1.1" id="Layer_1" xmlns="http://www.w3.org/2000/svg" xmlns:xlink="http://www.w3.org/1999/xlink" x="0px" y="0px"
	 viewBox="0 0 175.4 175.8" style="enable-background:new 0 0 175.4 175.8;" xml:space="preserve">
<style type="text/css">
	.st0{fill:url(#Ellipse_30_1_);}
	.st1{fill:#FFFFFF;}
</style>
<linearGradient id="Ellipse_30_1_" gradientUnits="userSpaceOnUse" x1="1.9377" y1="560.0934" x2="3.1207" y2="559.0185" gradientTransform="matrix(174 0 0 -174 -326.5 97474)">
	<stop  offset="0" style="stop-color:#66DFF0"/>
	<stop  offset="1" style="stop-color:#A959F1"/>
</linearGradient>
<circle id="Ellipse_30" class="st0" cx="87.7" cy="87.7" r="87"/>
<path id="Path_941" class="st1" d="M97.1,50L75.3,71.8c-1.2,1.2-1.9,2.9-1.9,4.6H53.5v39.7h19.8c1.2,0,2.3-0.3,3.3-0.9
	c1,0.6,2.1,0.9,3.3,0.9h29.7c2.6,0,5-1.6,6.1-4l9.9-23.2c0.4-0.8,0.5-1.7,0.5-2.6v-6.6c0-3.7-3-6.6-6.6-6.6h-21l3.1-14.2
	c0.5-2.2-0.2-4.5-1.8-6.1L97.1,50z M94.3,62.2l-2.1,9.6l-1.8,8h29.2v6.6l-9.9,23.2H80V76.5L94.3,62.2L94.3,62.2z M60.1,83.1h13.2
	v26.5H60.1V83.1z"/>
</svg>
