<?xml version="1.0" encoding="utf-8"?>
<!-- Generator: Adobe Illustrator 24.2.3, SVG Export Plug-In . SVG Version: 6.00 Build 0)  -->
<svg version="1.1" id="Layer_1" xmlns="http://www.w3.org/2000/svg" xmlns:xlink="http://www.w3.org/1999/xlink" x="0px" y="0px"
	 viewBox="0 0 90.3 79.1" style="enable-background:new 0 0 90.3 79.1;" xml:space="preserve">
<style type="text/css">
	.st0{fill:url(#Path_964_1_);}
</style>
<linearGradient id="Path_964_1_" gradientUnits="userSpaceOnUse" x1="2.6325" y1="559.0587" x2="4.5175" y2="557.7777" gradientTransform="matrix(90 0 0 -78.6 -242.5 43954.6016)">
	<stop  offset="0" style="stop-color:#66DFF0"/>
	<stop  offset="1" style="stop-color:#A959F1"/>
</linearGradient>
<path id="Path_964" class="st0" d="M0,78.6h34.2l6.9-39H25.5c3.3-10.2,11.1-23.4,19.5-33L33.3,0C21,12,8.7,29.7,5.4,48.6L0,78.6z
	 M45,78.6h34.2l6.9-39H70.5c3.3-10.2,11.1-23.4,19.5-33L78.3,0C66,12,53.7,29.7,50.4,48.6L45,78.6z"/>
</svg>
